Homework 8
…
    # Avg of  weather variables
    avg_temperature = mean(Temperature),
    avg_humidity = mean(Humidity),
    avg_windspeed = mean(Windspeed),
    avg_visibility = mean(Visibility),
    avg_dewpointtemperature = mean(Dewpointtemperature),
    avg_solarradiation = mean(SolarRadiation),
    .groups = 'drop' 
  )

print(bike_data_daily)

# A tibble: 353 × 12
   Date       Seasons Holiday    daily_bike_count total_rainfall total_snowfall
   <date>     <fct>   <fct>                 <int>          <dbl>          <dbl>
 1 0001-01-20 Winter  Holiday                4290            0              0  
 2 0001-02-20 Winter  No Holiday             5377            0             21.7
 3 0001-03-20 Spring  Holiday                5132            2.5            0  
 4 0001-04-20 Spring  No Holiday            17388            0              0  
 5 0001-05-20 Spring  Holiday               26820            0              0  
 6 0001-06-20 Summer  No Holiday            31928            0              0  
 7 0001-07-20 Summer  No Holiday             3231           81              0  
 8 0001-08-20 Summer  No Holiday            20712            0              0  
 9 0001-09-20 Autumn  No Holiday            26010            0              0  
10 0001-10-20 Autumn  No Holiday            27909            0              0  
# ℹ 343 more rows
# ℹ 6 more variables: avg_temperature <dbl>, avg_humidity <dbl>,
#   avg_windspeed <dbl>, avg_visibility <dbl>, avg_dewpointtemperature <dbl>,
#   avg_solarradiation <dbl>
…
